{
	"variables": [],
	"info": {
		"name": "Email",
		"_postman_id": "4c85629b-63b0-6cc5-4de6-d5c851ffa557",
		"description": "",
		"schema": "https://schema.getpostman.com/json/collection/v2.0.0/collection.json"
	},
	"item": [
		{
			"name": "Seed",
			"description": "",
			"item": [
				{
					"name": "Clear test template",
					"request": {
						"url": "{{default_host}}:{{templatemanager_port}}/test/1.0/html",
						"method": "DELETE",
						"header": [
							{
								"key": "Authorization",
								"value": "Bearer {{default_token}}",
								"description": ""
							}
						],
						"body": {
							"mode": "raw",
							"raw": ""
						},
						"description": ""
					},
					"response": []
				},
				{
					"name": "Set test template",
					"request": {
						"url": "{{default_host}}:{{templatemanager_port}}/",
						"method": "PUT",
						"header": [
							{
								"key": "Authorization",
								"value": "Bearer {{default_token}}",
								"description": ""
							},
							{
								"key": "Content-Type",
								"value": "application/json",
								"description": ""
							}
						],
						"body": {
							"mode": "raw",
							"raw": "{\n\t\"name\":\"test\",\n\t\"title\":\"Test Template\",\n\t\"version\":\"1.0\",\n\t\"format\":\"Html\",\n\t\"body\":\"<html><body>Hi {{name}}, {{message}}</body></html>\"\n}"
						},
						"description": ""
					},
					"response": []
				},
				{
					"name": "Set Email configuration",
					"request": {
						"url": "{{default_host}}:{{configuration_port}}/email",
						"method": "POST",
						"header": [
							{
								"key": "Authorization",
								"value": "Bearer {{default_token}}",
								"description": ""
							},
							{
								"key": "Content-Type",
								"value": "application/json",
								"description": ""
							}
						],
						"body": {
							"mode": "raw",
							"raw": "{\r\n  \"emailProvider\": \"Sendgrid\",\r\n  \"emailProviderSettings\": {\r\n    \"Sendgrid\": {\r\n      \"ApiKey\": \"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\",\r\n      \"FromName\": \"LendFoundry Development\",\r\n      \"FromAddress\": \"development@lendfoundry.com\"\r\n    }\r\n  }\r\n}"
						},
						"description": ""
					},
					"response": []
				}
			]
		},
		{
			"name": "Test",
			"description": "",
			"item": [
				{
					"name": "Send test email",
					"request": {
						"url": "{{default_host}}:{{default_port}}/test/1.0",
						"method": "POST",
						"header": [
							{
								"key": "Authorization",
								"value": "Bearer {{default_token}}",
								"description": ""
							},
							{
								"key": "Content-Type",
								"value": "application/json",
								"description": ""
							}
						],
						"body": {
							"mode": "raw",
							"raw": "{\n\t\"email\":\"YOUR EMAIL HERE\",\n\t\"name\":\"Developer\",\n\t\"message\": \"How are you?\"\n}"
						},
						"description": ""
					},
					"response": []
				}
			]
		}
	]
}