﻿{
  "dependencies": {
    "Microsoft.Framework.DependencyInjection.Abstractions": "1.0.0-beta8",
    "LendFoundry.Foundation.Logging": "1.0.9-*",
    "LendFoundry.Foundation.Services": "1.0.11-*",
    "docitt.ChattingService.Abstractions": ""
  },
  "frameworks": {
    "dnx451": {}
  },
  "version": "1.0.0"
}
