{
  "profiles": {
    "kestrel": {
      "commandName": "Project",
      "environmentVariables": {
        "LOG_FORMAT": "plain",
        "CHATTINGSERVICE_CONFIGURATION_PORT": "5008",
        "CHATTINGSERVICE_CONFIGURATION_HOST": "52.24.116.110",
        
        "CHATTINGSERVICE_TENANT_HOST": "52.24.116.110",
        "CHATTINGSERVICE_TENANT_PORT": "5014"
        

      }
    }
  }
}