﻿{
  "commands": {
    "kestrel": "Microsoft.AspNet.Hosting --server Microsoft.AspNet.Server.Kestrel --server.urls http://*:5000"
  },
  "dependencies": {
    "docitt.ChattingService": "",
    "docitt.ChattingService.Abstractions": "",
    "LendFoundry.Configuration.Client": "1.0.7-*",
    "LendFoundry.EventHub.Abstractions": "2.0.0-*",
    "LendFoundry.EventHub.Client": "2.0.0-*",
    "LendFoundry.Foundation.Date": "1.0.3-*",
    "LendFoundry.Foundation.Logging": "1.0.9-*",
    "LendFoundry.Foundation.Services": "1.0.11-*",      
    "LendFoundry.Security.Tokens": "1.0.7-*",
    "LendFoundry.Tenant.Abstractions": "1.0.0-*",
    "LendFoundry.Tenant.Client": "1.0.9-*",
    "Microsoft.AspNet.Cors": "6.0.0-beta8",
    "Microsoft.AspNet.Hosting": "1.0.0-beta8",
    "Microsoft.AspNet.Hosting.Abstractions": "1.0.0-beta8",
    "Microsoft.AspNet.Http": "1.0.0-beta8",
    "Microsoft.AspNet.Http.Abstractions": "1.0.0-beta8",
    "Microsoft.AspNet.Mvc": "6.0.0-beta8",
    "Microsoft.AspNet.Server.Kestrel": "1.0.0-beta8",
    "Microsoft.AspNet.WebUtilities": "1.0.0-beta8",
    "Microsoft.Framework.DependencyInjection.Abstractions": "1.0.0-beta8",
    "Microsoft.Net.Http.Headers": "1.0.0-beta8"
  },
  "frameworks": {
    "dnx451": {
    }
  },
  "version": "1.0.0"
}